VHDL/13.1ContadorCarrosPeaje/simulation/qsim/ContadorCarrosPeaje.msim.vcd
$comment
	File created using the following command:
		vcd file ContadorCarrosPeaje.msim.vcd -direction
$end
$date
	Tue Mar 12 17:13:31 2024
$end
$version
	ModelSim Version 10.1d
$end
$timescale
	1ps
$end
$scope module ContadorCarrosPeaje_vlg_vec_tst $end
$var reg 1 ! clk $end
$var reg 1 " reset $end
$var reg 1 # vehicle_detected $end
$var wire 1 $ vehicle_count [15] $end
$var wire 1 % vehicle_count [14] $end
$var wire 1 & vehicle_count [13] $end
$var wire 1 ' vehicle_count [12] $end
$var wire 1 ( vehicle_count [11] $end
$var wire 1 ) vehicle_count [10] $end
$var wire 1 * vehicle_count [9] $end
$var wire 1 + vehicle_count [8] $end
$var wire 1 , vehicle_count [7] $end
$var wire 1 - vehicle_count [6] $end
$var wire 1 . vehicle_count [5] $end
$var wire 1 / vehicle_count [4] $end
$var wire 1 0 vehicle_count [3] $end
$var wire 1 1 vehicle_count [2] $end
$var wire 1 2 vehicle_count [1] $end
$var wire 1 3 vehicle_count [0] $end
$var wire 1 4 sampler $end
$scope module i1 $end
$var wire 1 5 gnd $end
$var wire 1 6 vcc $end
$var wire 1 7 unknown $end
$var tri1 1 8 devclrn $end
$var tri1 1 9 devpor $end
$var tri1 1 : devoe $end
$var wire 1 ; vehicle_count[0]~output_o $end
$var wire 1 < vehicle_count[1]~output_o $end
$var wire 1 = vehicle_count[2]~output_o $end
$var wire 1 > vehicle_count[3]~output_o $end
$var wire 1 ? vehicle_count[4]~output_o $end
$var wire 1 @ vehicle_count[5]~output_o $end
$var wire 1 A vehicle_count[6]~output_o $end
$var wire 1 B vehicle_count[7]~output_o $end
$var wire 1 C vehicle_count[8]~output_o $end
$var wire 1 D vehicle_count[9]~output_o $end
$var wire 1 E vehicle_count[10]~output_o $end
$var wire 1 F vehicle_count[11]~output_o $end
$var wire 1 G vehicle_count[12]~output_o $end
$var wire 1 H vehicle_count[13]~output_o $end
$var wire 1 I vehicle_count[14]~output_o $end
$var wire 1 J vehicle_count[15]~output_o $end
$var wire 1 K clk~input_o $end
$var wire 1 L clk~inputclkctrl_outclk $end
$var wire 1 M vehicle_detected~input_o $end
$var wire 1 N count_reg[0]~15_combout $end
$var wire 1 O reset~input_o $end
$var wire 1 P reset~inputclkctrl_outclk $end
$var wire 1 Q count_reg[1]~16_combout $end
$var wire 1 R count_reg[1]~17 $end
$var wire 1 S count_reg[2]~18_combout $end
$var wire 1 T count_reg[2]~19 $end
$var wire 1 U count_reg[3]~20_combout $end
$var wire 1 V count_reg[3]~21 $end
$var wire 1 W count_reg[4]~22_combout $end
$var wire 1 X count_reg[4]~23 $end
$var wire 1 Y count_reg[5]~24_combout $end
$var wire 1 Z count_reg[5]~25 $end
$var wire 1 [ count_reg[6]~26_combout $end
$var wire 1 \ count_reg[6]~27 $end
$var wire 1 ] count_reg[7]~28_combout $end
$var wire 1 ^ count_reg[7]~29 $end
$var wire 1 _ count_reg[8]~30_combout $end
$var wire 1 ` count_reg[8]~31 $end
$var wire 1 a count_reg[9]~32_combout $end
$var wire 1 b count_reg[9]~33 $end
$var wire 1 c count_reg[10]~34_combout $end
$var wire 1 d count_reg[10]~35 $end
$var wire 1 e count_reg[11]~36_combout $end
$var wire 1 f count_reg[11]~37 $end
$var wire 1 g count_reg[12]~38_combout $end
$var wire 1 h count_reg[12]~39 $end
$var wire 1 i count_reg[13]~40_combout $end
$var wire 1 j count_reg[13]~41 $end
$var wire 1 k count_reg[14]~42_combout $end
$var wire 1 l count_reg[14]~43 $end
$var wire 1 m count_reg[15]~44_combout $end
$var wire 1 n count_reg [15] $end
$var wire 1 o count_reg [14] $end
$var wire 1 p count_reg [13] $end
$var wire 1 q count_reg [12] $end
$var wire 1 r count_reg [11] $end
$var wire 1 s count_reg [10] $end
$var wire 1 t count_reg [9] $end
$var wire 1 u count_reg [8] $end
$var wire 1 v count_reg [7] $end
$var wire 1 w count_reg [6] $end
$var wire 1 x count_reg [5] $end
$var wire 1 y count_reg [4] $end
$var wire 1 z count_reg [3] $end
$var wire 1 { count_reg [2] $end
$var wire 1 | count_reg [1] $end
$var wire 1 } count_reg [0] $end
$upscope $end
$upscope $end
$enddefinitions $end
#0
$dumpvars
0!
0"
0#
03
02
01
00
0/
0.
0-
0,
0+
0*
0)
0(
0'
0&
0%
0$
x4
05
16
x7
18
19
1:
0;
0<
0=
0>
0?
0@
0A
0B
0C
0D
0E
0F
0G
0H
0I
0J
0K
0L
0M
0N
0O
0P
0Q
0R
0S
1T
0U
0V
0W
1X
0Y
0Z
0[
1\
0]
0^
0_
1`
0a
0b
0c
1d
0e
0f
0g
1h
0i
0j
0k
1l
0m
0}
0|
0{
0z
0y
0x
0w
0v
0u
0t
0s
0r
0q
0p
0o
0n
$end
#5000
1!
1K
1L
04
#10000
0!
0K
0L
14
#15000
1!
1K
1L
04
#20000
0!
0K
0L
14
#25000
1!
1K
1L
04
#30000
0!
0K
0L
14
#35000
1!
1K
1L
04
#40000
0!
0K
0L
14
#45000
1!
1K
1L
04
#50000
0!
0K
0L
14
#55000
1!
1K
1L
04
#60000
0!
0K
0L
14
#65000
1!
1K
1L
04
#70000
0!
0K
0L
14
#75000
1!
1K
1L
04
#80000
0!
0K
0L
14
#85000
1!
1K
1L
04
#90000
0!
0K
0L
14
#95000
1!
1K
1L
04
#100000
0!
0K
0L
14
#105000
1!
1K
1L
04
#110000
0!
0K
0L
14
#115000
1!
1K
1L
04
#120000
0!
0K
0L
14
#125000
1!
1K
1L
04
#130000
0!
0K
0L
14
#135000
1!
1K
1L
04
#140000
0!
0K
0L
14
#145000
1!
1K
1L
04
#150000
0!
0K
0L
14
#155000
1!
1K
1L
04
#160000
0!
0K
0L
14
#165000
1!
1K
1L
04
#170000
0!
0K
0L
14
#175000
1!
1K
1L
04
#180000
0!
0K
0L
14
#185000
1!
1K
1L
04
#190000
0!
0K
0L
14
#195000
1!
1K
1L
04
#200000
0!
0K
0L
14
#205000
1!
1K
1L
04
#210000
0!
0K
0L
14
#215000
1!
1K
1L
04
#220000
0!
0K
0L
14
#225000
1!
1K
1L
04
#230000
0!
0K
0L
14
#235000
1!
1K
1L
04
#240000
0!
0K
0L
14
#245000
1!
1K
1L
04
#250000
0!
0K
0L
14
#255000
1!
1K
1L
04
#260000
0!
0K
0L
14
#265000
1!
1K
1L
04
#270000
0!
0K
0L
14
#275000
1!
1K
1L
04
#280000
0!
0K
0L
14
#285000
1!
1K
1L
04
#290000
0!
0K
0L
14
#295000
1!
1K
1L
04
#300000
0!
0K
0L
14
#305000
1!
1K
1L
04
#310000
0!
0K
0L
14
#315000
1!
1K
1L
04
#320000
0!
0K
0L
14
#325000
1!
1K
1L
04
#330000
0!
0K
0L
14
#335000
1!
1K
1L
04
#340000
0!
0K
0L
14
#345000
1!
1K
1L
04
#350000
0!
0K
0L
14
#355000
1!
1K
1L
04
#360000
0!
0K
0L
14
#365000
1!
1K
1L
04
#370000
0!
0K
0L
14
#375000
1!
1K
1L
04
#380000
0!
0K
0L
14
#385000
1!
1K
1L
04
#390000
0!
0K
0L
14
#395000
1!
1K
1L
04
#400000
0!
0K
0L
14
#405000
1!
1K
1L
04
#410000
0!
0K
0L
14
#415000
1!
1K
1L
04
#420000
0!
0K
0L
14
#425000
1!
1K
1L
04
#430000
0!
0K
0L
14
#435000
1!
1K
1L
04
#440000
0!
0K
0L
14
#445000
1!
1K
1L
04
#450000
0!
0K
0L
14
#455000
1!
1K
1L
04
#460000
0!
0K
0L
14
#465000
1!
1K
1L
04
#470000
0!
0K
0L
14
#475000
1!
1K
1L
04
#480000
0!
0K
0L
14
#485000
1!
1K
1L
04
#490000
0!
0K
0L
14
#495000
1!
1K
1L
04
#500000
0!
0K
0L
14
#505000
1!
1K
1L
04
#510000
0!
0K
0L
14
#515000
1!
1K
1L
04
#520000
0!
0K
0L
14
#525000
1!
1K
1L
04
#530000
0!
0K
0L
14
#535000
1!
1K
1L
04
#540000
0!
0K
0L
14
#545000
1!
1K
1L
04
#550000
0!
0K
0L
14
#555000
1!
1K
1L
04
#560000
0!
0K
0L
14
#565000
1!
1K
1L
04
#570000
0!
0K
0L
14
#575000
1!
1K
1L
04
#580000
0!
0K
0L
14
#585000
1!
1K
1L
04
#590000
0!
0K
0L
14
#595000
1!
1K
1L
04
#600000
0!
0K
0L
14
#605000
1!
1K
1L
04
#610000
0!
0K
0L
14
#615000
1!
1K
1L
04
#620000
0!
0K
0L
14
#625000
1!
1K
1L
04
#630000
0!
0K
0L
14
#635000
1!
1K
1L
04
#640000
0!
0K
0L
14
#645000
1!
1K
1L
04
#650000
0!
0K
0L
14
#655000
1!
1K
1L
04
#660000
0!
0K
0L
14
#665000
1!
1K
1L
04
#670000
0!
0K
0L
14
#675000
1!
1K
1L
04
#680000
0!
0K
0L
14
#685000
1!
1K
1L
04
#690000
0!
0K
0L
14
#695000
1!
1K
1L
04
#700000
0!
0K
0L
14
#705000
1!
1K
1L
04
#710000
0!
0K
0L
14
#715000
1!
1K
1L
04
#720000
0!
0K
0L
14
#725000
1!
1K
1L
04
#730000
0!
0K
0L
14
#735000
1!
1K
1L
04
#740000
0!
0K
0L
14
#745000
1!
1K
1L
04
#750000
0!
0K
0L
14
#755000
1!
1K
1L
04
#760000
0!
0K
0L
14
#765000
1!
1K
1L
04
#770000
0!
0K
0L
14
#775000
1!
1K
1L
04
#780000
0!
0K
0L
14
#785000
1!
1K
1L
04
#790000
0!
0K
0L
14
#795000
1!
1K
1L
04
#800000
0!
0K
0L
14
#805000
1!
1K
1L
04
#810000
0!
0K
0L
14
#815000
1!
1K
1L
04
#820000
0!
0K
0L
14
#825000
1!
1K
1L
04
#830000
0!
0K
0L
14
#835000
1!
1K
1L
04
#840000
0!
0K
0L
14
#845000
1!
1K
1L
04
#850000
0!
0K
0L
14
#855000
1!
1K
1L
04
#860000
0!
0K
0L
14
#865000
1!
1K
1L
04
#870000
0!
0K
0L
14
#875000
1!
1K
1L
04
#880000
0!
0K
0L
14
#885000
1!
1K
1L
04
#890000
0!
0K
0L
14
#895000
1!
1K
1L
04
#900000
0!
0K
0L
14
#905000
1!
1K
1L
04
#910000
0!
0K
0L
14
#915000
1!
1K
1L
04
#920000
0!
0K
0L
14
#925000
1!
1K
1L
04
#930000
0!
0K
0L
14
#935000
1!
1K
1L
04
#940000
0!
0K
0L
14
#945000
1!
1K
1L
04
#950000
0!
0K
0L
14
#955000
1!
1K
1L
04
#960000
0!
0K
0L
14
#965000
1!
1K
1L
04
#970000
0!
0K
0L
14
#975000
1!
1K
1L
04
#980000
0!
0K
0L
14
#985000
1!
1K
1L
04
#990000
0!
0K
0L
14
#995000
1!
1K
1L
04
